.Xil/Vivado-83048-1012-kerol/hw_ila_data_1/zip_work/waveform.vcd
$date
        2022-Dec-10 11:32:05
$end
$version
        Vivado v2018.3 (64-bit)
$end
$timescale
        1ps
$end
$scope module dut $end
$var reg 1 " clk_200m $end
$var reg 1 # timeout_cnt_flag $end
$var reg 10 $ tx_time [9:0] $end
$var reg 10 . rx_time [9:0] $end
$var reg 10 8 delay [9:0] $end
$var reg 1 B rec_pkt_done1 $end
$var reg 8 C t_hz_1 [7:0] $end
$var reg 10 K us_1 [9:0] $end
$var reg 10 U ms [9:0] $end
$var reg 1 _ _TRIGGER $end
$var reg 1 ` _WINDOW $end
$var reg 1 a _GAP $end
$upscope $end
$enddefinitions $end
#0
$dumpvars
0"
0#
b10011111 $
b10100101 .
b110 8
0B
b1111 C
b110000110 K
b1110000010 U
0_
1`
0a
$end
#1
b10000 C
#2
b10001 C
#3
b10010 C
#4
b10011 C
#5
b10100 C
#6
b10101 C
#7
b10110 C
#8
b10111 C
#9
b11000 C
#10
b11001 C
#11
b11010 C
#12
b11011 C
#13
b11100 C
#14
b11101 C
#15
b11110 C
#16
b11111 C
#17
b100000 C
#18
b100001 C
#19
b100010 C
#20
b100011 C
#21
b100100 C
#22
b100101 C
#23
b100110 C
#24
b100111 C
#25
b101000 C
#26
b101001 C
#27
b101010 C
#28
b101011 C
#29
b101100 C
#30
b101101 C
#31
b101110 C
#32
b101111 C
#33
b110000 C
#34
b110001 C
#35
b110010 C
#36
b110011 C
#37
b110100 C
#38
b110101 C
#39
b110110 C
#40
b110111 C
#41
b111000 C
#42
b111001 C
#43
b111010 C
#44
b111011 C
#45
b111100 C
#46
b111101 C
#47
b111110 C
#48
b111111 C
#49
b1000000 C
#50
b1000001 C
#51
b1000010 C
#52
b1000011 C
#53
b1000100 C
#54
b1000101 C
#55
b1000110 C
#56
b1000111 C
#57
b1001000 C
#58
b1001001 C
#59
b1001010 C
#60
b1001011 C
#61
b1001100 C
#62
b1001101 C
#63
b1001110 C
#64
b1001111 C
#65
b1010000 C
#66
b1010001 C
#67
b1010010 C
#68
b1010011 C
#69
b1010100 C
#70
b1010101 C
#71
b1010110 C
#72
b1010111 C
#73
b1011000 C
#74
b1011001 C
#75
b1011010 C
#76
b1011011 C
#77
b1011100 C
#78
b1011101 C
#79
b1011110 C
#80
b1011111 C
#81
b1100000 C
#82
b1100001 C
#83
b1100010 C
#84
b1100011 C
#85
b1100100 C
#86
b1100101 C
#87
b1100110 C
#88
b1100111 C
#89
b1101000 C
#90
b1101001 C
#91
b1101010 C
#92
b1101011 C
#93
b1101100 C
#94
b1101101 C
#95
b1101110 C
#96
b1101111 C
#97
b1110000 C
#98
b1110001 C
#99
b1110010 C
#100
b1110011 C
#101
b1110100 C
#102
b1110101 C
#103
b1110110 C
#104
b1110111 C
#105
b1111000 C
#106
b1111001 C
#107
b1111010 C
#108
b1111011 C
#109
b1111100 C
#110
b1111101 C
#111
b1111110 C
#112
b1111111 C
#113
b10000000 C
#114
b10000001 C
#115
b10000010 C
#116
b10000011 C
#117
b10000100 C
#118
b10000101 C
#119
b10000110 C
#120
b10000111 C
#121
b10001000 C
#122
b10001001 C
#123
b10001010 C
#124
b10001011 C
#125
b10001100 C
#126
b10001101 C
#127
b10001110 C
#128
b10001111 C
#129
b10010000 C
#130
b10010001 C
#131
b10010010 C
#132
b10010011 C
#133
b10010100 C
#134
b10010101 C
#135
b10010110 C
#136
b10010111 C
#137
b10011000 C
#138
b10011001 C
#139
b10011010 C
#140
b10011011 C
#141
b10011100 C
#142
b10011101 C
#143
b10011110 C
#144
b10011111 C
#145
b10100000 C
#146
b10100001 C
#147
b10100010 C
#148
b10100011 C
#149
b10100100 C
#150
b10100101 C
#151
b10100110 C
#152
b10100111 C
#153
b10101000 C
#154
b10101001 C
#155
b10101010 C
#156
b10101011 C
#157
b10101100 C
#158
b10101101 C
#159
b10101110 C
#160
b10101111 C
#161
b10110000 C
#162
b10110001 C
#163
b10110010 C
#164
b10110011 C
#165
b10110100 C
#166
b10110101 C
#167
b10110110 C
#168
b10110111 C
#169
b10111000 C
#170
b10111001 C
#171
b10111010 C
#172
b10111011 C
#173
b10111100 C
#174
b10111101 C
#175
b10111110 C
#176
b10111111 C
#177
b11000000 C
#178
b11000001 C
#179
b11000010 C
#180
b11000011 C
#181
b11000100 C
#182
b11000101 C
#183
b11000110 C
#184
b11000111 C
#185
b11001000 C
#186
b0 C
b110000111 K
#187
b1 C
#188
b10 C
#189
b11 C
#190
b100 C
#191
b101 C
#192
b110 C
#193
b111 C
#194
b1000 C
#195
b1001 C
#196
b1010 C
#197
b1011 C
#198
b1100 C
#199
b1101 C
#200
b1110 C
#201
b1111 C
#202
b10000 C
#203
b10001 C
#204
b10010 C
#205
b10011 C
#206
b10100 C
#207
b10101 C
#208
b10110 C
#209
b10111 C
#210
b11000 C
#211
b11001 C
#212
b11010 C
#213
b11011 C
#214
b11100 C
#215
b11101 C
#216
b11110 C
#217
b11111 C
#218
b100000 C
#219
b100001 C
#220
b100010 C
#221
b100011 C
#222
b100100 C
#223
b100101 C
#224
b100110 C
#225
b100111 C
#226
b101000 C
#227
b101001 C
#228
b101010 C
#229
b101011 C
#230
b101100 C
#231
b101101 C
#232
b101110 C
#233
b101111 C
#234
b110000 C
#235
b110001 C
#236
b110010 C
#237
b110011 C
#238
b110100 C
#239
b110101 C
#240
b110110 C
#241
b110111 C
#242
b111000 C
#243
b111001 C
#244
b111010 C
#245
b111011 C
#246
b111100 C
#247
b111101 C
#248
b111110 C
#249
b111111 C
#250
b1000000 C
#251
b1000001 C
#252
b1000010 C
#253
b1000011 C
#254
b1000100 C
#255
b1000101 C
#256
b1000110 C
#257
b1000111 C
#258
b1001000 C
#259
b1001001 C
#260
b1001010 C
#261
b1001011 C
#262
b1001100 C
#263
b1001101 C
#264
b1001110 C
#265
b1001111 C
#266
b1010000 C
#267
b1010001 C
#268
b1010010 C
#269
b1010011 C
#270
b1010100 C
#271
b1010101 C
#272
b1010110 C
#273
b1010111 C
#274
b1011000 C
#275
b1011001 C
#276
b1011010 C
#277
b1011011 C
#278
b1011100 C
#279
b1011101 C
#280
b1011110 C
#281
b1011111 C
#282
b1100000 C
#283
b1100001 C
#284
b1100010 C
#285
b1100011 C
#286
b1100100 C
#287
b1100101 C
#288
b1100110 C
#289
b1100111 C
#290
b1101000 C
#291
b1101001 C
#292
b1101010 C
#293
b1101011 C
#294
b1101100 C
#295
b1101101 C
#296
b1101110 C
#297
b1101111 C
#298
b1110000 C
#299
b1110001 C
#300
b1110010 C
#301
b1110011 C
#302
b1110100 C
#303
b1110101 C
#304
b1110110 C
#305
b1110111 C
#306
b1111000 C
#307
b1111001 C
#308
b1111010 C
#309
b1111011 C
#310
b1111100 C
#311
b1111101 C
#312
b1111110 C
#313
b1111111 C
#314
b10000000 C
#315
b10000001 C
#316
b10000010 C
#317
b10000011 C
#318
b10000100 C
#319
b10000101 C
#320
b10000110 C
#321
b10000111 C
#322
b10001000 C
#323
b10001001 C
#324
b10001010 C
#325
b10001011 C
#326
b10001100 C
#327
b10001101 C
#328
b10001110 C
#329
b10001111 C
#330
b10010000 C
#331
b10010001 C
#332
b10010010 C
#333
b10010011 C
#334
b10010100 C
#335
b10010101 C
#336
b10010110 C
#337
b10010111 C
#338
b10011000 C
#339
b10011001 C
#340
b10011010 C
#341
b10011011 C
#342
b10011100 C
#343
b10011101 C
#344
b10011110 C
#345
b10011111 C
#346
b10100000 C
#347
b10100001 C
#348
b10100010 C
#349
b10100011 C
#350
b10100100 C
#351
b10100101 C
#352
b10100110 C
#353
b10100111 C
#354
b10101000 C
#355
b10101001 C
#356
b10101010 C
#357
b10101011 C
#358
b10101100 C
#359
b10101101 C
#360
b10101110 C
#361
b10101111 C
#362
b10110000 C
#363
b10110001 C
#364
b10110010 C
#365
b10110011 C
#366
b10110100 C
#367
b10110101 C
#368
b10110110 C
#369
b10110111 C
#370
b10111000 C
#371
b10111001 C
#372
b10111010 C
#373
b10111011 C
#374
b10111100 C
#375
b10111101 C
#376
b10111110 C
#377
b10111111 C
#378
b11000000 C
#379
b11000001 C
#380
b11000010 C
#381
b11000011 C
#382
b11000100 C
#383
b11000101 C
#384
b11000110 C
#385
b11000111 C
#386
b11001000 C
#387
b0 C
b110001000 K
#388
b1 C
#389
b10 C
#390
b11 C
#391
b100 C
#392
b101 C
#393
b110 C
#394
b111 C
#395
b1000 C
#396
b1001 C
#397
b1010 C
#398
b1011 C
#399
b1100 C
#400
b1101 C
#401
b1110 C
#402
b1111 C
#403
b10000 C
#404
b10001 C
#405
b10010 C
#406
b10011 C
#407
b10100 C
#408
b10101 C
#409
b10110 C
#410
b10111 C
#411
b11000 C
#412
b11001 C
#413
b11010 C
#414
b11011 C
#415
b11100 C
#416
b11101 C
#417
b11110 C
#418
b11111 C
#419
b100000 C
#420
b100001 C
#421
b100010 C
#422
b100011 C
#423
b100100 C
#424
b100101 C
#425
b100110 C
#426
b100111 C
#427
b101000 C
#428
b101001 C
#429
b101010 C
#430
b101011 C
#431
b101100 C
#432
b101101 C
#433
b101110 C
#434
b101111 C
#435
b110000 C
#436
b110001 C
#437
b110010 C
#438
b110011 C
#439
b110100 C
#440
b110101 C
#441
b110110 C
#442
b110111 C
#443
b111000 C
#444
b111001 C
#445
b111010 C
#446
b111011 C
#447
b111100 C
#448
b111101 C
#449
b111110 C
#450
b111111 C
#451
b1000000 C
#452
b1000001 C
#453
b1000010 C
#454
b1000011 C
#455
b1000100 C
#456
b1000101 C
#457
b1000110 C
#458
b1000111 C
#459
b1001000 C
#460
b1001001 C
#461
b1001010 C
#462
b1001011 C
#463
b1001100 C
#464
b1001101 C
#465
b1001110 C
#466
b1001111 C
#467
b1010000 C
#468
b1010001 C
#469
b1010010 C
#470
b1010011 C
#471
b1010100 C
#472
b1010101 C
#473
b1010110 C
#474
b1010111 C
#475
b1011000 C
#476
b1011001 C
#477
b1011010 C
#478
b1011011 C
#479
b1011100 C
#480
b1011101 C
#481
b1011110 C
#482
b1011111 C
#483
b1100000 C
#484
b1100001 C
#485
b1100010 C
#486
b1100011 C
#487
b1100100 C
#488
b1100101 C
#489
b1100110 C
#490
b1100111 C
#491
b1101000 C
#492
b1101001 C
#493
b1101010 C
#494
b1101011 C
#495
b1101100 C
#496
b1101101 C
#497
b1101110 C
#498
b1101111 C
#499
b1110000 C
#500
b1110001 C
#501
b1110010 C
#502
b1110011 C
#503
b1110100 C
#504
b1110101 C
#505
b1110110 C
#506
b1110111 C
#507
b1111000 C
#508
b1111001 C
#509
b1111010 C
#510
b1111011 C
#511
b1111100 C
#512
b1111101 C
#513
b1111110 C
#514
b1111111 C
#515
b10000000 C
#516
b10000001 C
#517
b10000010 C
#518
b10000011 C
#519
b10000100 C
#520
b10000101 C
#521
b10000110 C
#522
b10000111 C
#523
b10001000 C
#524
b10001001 C
#525
b10001010 C
#526
b10001011 C
#527
b10001100 C
#528
b10001101 C
#529
b10001110 C
#530
b10001111 C
#531
b10010000 C
#532
b10010001 C
#533
b10010010 C
#534
b10010011 C
#535
b10010100 C
#536
b10010101 C
#537
b10010110 C
#538
b10010111 C
#539
b10011000 C
#540
b10011001 C
#541
b10011010 C
#542
b10011011 C
#543
b10011100 C
#544
b10011101 C
#545
b10011110 C
#546
b10011111 C
#547
b10100000 C
#548
b10100001 C
#549
b10100010 C
#550
b10100011 C
#551
b10100100 C
#552
b10100101 C
#553
b10100110 C
#554
b10100111 C
#555
b10101000 C
#556
b10101001 C
#557
b10101010 C
#558
b10101011 C
#559
b10101100 C
#560
b10101101 C
#561
b10101110 C
#562
b10101111 C
#563
b10110000 C
#564
b10110001 C
#565
b10110010 C
#566
b10110011 C
#567
b10110100 C
#568
b10110101 C
#569
b10110110 C
#570
b10110111 C
#571
b10111000 C
#572
b10111001 C
#573
b10111010 C
#574
b10111011 C
#575
b10111100 C
#576
b10111101 C
#577
b10111110 C
#578
b10111111 C
#579
b11000000 C
#580
b11000001 C
#581
b11000010 C
#582
b11000011 C
#583
b11000100 C
#584
b11000101 C
#585
b11000110 C
#586
b11000111 C
#587
b11001000 C
#588
b0 C
b110001001 K
#589
b1 C
#590
b10 C
#591
b11 C
#592
b100 C
#593
b101 C
#594
b110 C
#595
b111 C
#596
b1000 C
#597
b1001 C
#598
b1010 C
#599
b1011 C
#600
b1100 C
#601
b1101 C
#602
b1110 C
#603
b1111 C
#604
b10000 C
#605
b10001 C
#606
b10010 C
#607
b10011 C
#608
b10100 C
#609
b10101 C
#610
b10110 C
#611
b10111 C
#612
b11000 C
#613
b11001 C
#614
b11010 C
#615
b11011 C
#616
b11100 C
#617
b11101 C
#618
b11110 C
#619
b11111 C
#620
b100000 C
#621
b100001 C
#622
b100010 C
#623
b100011 C
#624
b100100 C
#625
b100101 C
#626
b100110 C
#627
b100111 C
#628
b101000 C
#629
b101001 C
#630
b101010 C
#631
b101011 C
#632
b101100 C
#633
b101101 C
#634
b101110 C
#635
b101111 C
#636
b110000 C
#637
b110001 C
#638
b110010 C
#639
b110011 C
#640
b110100 C
#641
b110101 C
#642
b110110 C
#643
b110111 C
#644
b111000 C
#645
b111001 C
#646
b111010 C
#647
b111011 C
#648
b111100 C
#649
b111101 C
#650
b111110 C
#651
b111111 C
#652
b1000000 C
#653
b1000001 C
#654
b1000010 C
#655
b1000011 C
#656
b1000100 C
#657
b1000101 C
#658
b1000110 C
#659
b1000111 C
#660
b1001000 C
#661
b1001001 C
#662
b1001010 C
#663
b1001011 C
#664
b1001100 C
#665
b1001101 C
#666
b1001110 C
#667
b1001111 C
#668
b1010000 C
#669
b1010001 C
#670
b1010010 C
#671
b1010011 C
#672
b1010100 C
#673
b1010101 C
#674
b1010110 C
#675
b1010111 C
#676
b1011000 C
#677
b1011001 C
#678
b1011010 C
#679
b1011011 C
#680
b1011100 C
#681
b1011101 C
#682
b1011110 C
#683
b1011111 C
#684
b1100000 C
#685
b1100001 C
#686
b1100010 C
#687
b1100011 C
#688
b1100100 C
#689
b1100101 C
#690
b1100110 C
#691
b1100111 C
#692
b1101000 C
#693
b1101001 C
#694
b1101010 C
#695
b1101011 C
#696
b1101100 C
#697
b1101101 C
#698
b1101110 C
#699
b1101111 C
#700
b1110000 C
#701
b1110001 C
#702
b1110010 C
#703
b1110011 C
#704
b1110100 C
#705
b1110101 C
#706
b1110110 C
#707
b1110111 C
#708
b1111000 C
#709
b1111001 C
#710
b1111010 C
#711
b1111011 C
#712
b1111100 C
#713
b1111101 C
#714
b1111110 C
#715
b1111111 C
#716
b10000000 C
#717
b10000001 C
#718
b10000010 C
#719
b10000011 C
#720
b10000100 C
#721
b10000101 C
#722
b10000110 C
#723
b10000111 C
#724
b10001000 C
#725
b10001001 C
#726
b10001010 C
#727
b10001011 C
#728
b10001100 C
#729
b10001101 C
#730
b10001110 C
#731
b10001111 C
#732
b10010000 C
#733
b10010001 C
#734
b10010010 C
#735
b10010011 C
#736
b10010100 C
#737
b10010101 C
#738
b10010110 C
#739
b10010111 C
#740
b10011000 C
#741
b10011001 C
#742
b10011010 C
#743
b10011011 C
#744
b10011100 C
#745
b10011101 C
#746
b10011110 C
#747
b10011111 C
#748
b10100000 C
#749
b10100001 C
#750
b10100010 C
#751
b10100011 C
#752
b10100100 C
#753
b10100101 C
#754
b10100110 C
#755
b10100111 C
#756
b10101000 C
#757
b10101001 C
#758
b10101010 C
#759
b10101011 C
#760
b10101100 C
#761
b10101101 C
#762
b10101110 C
#763
b10101111 C
#764
b10110000 C
#765
b10110001 C
#766
b10110010 C
#767
b10110011 C
#768
b10110100 C
#769
b10110101 C
#770
b10110110 C
#771
b10110111 C
#772
b10111000 C
#773
b10111001 C
#774
b10111010 C
#775
b10111011 C
#776
b10111100 C
#777
b10111101 C
#778
b10111110 C
#779
b10111111 C
#780
b11000000 C
#781
b11000001 C
#782
b11000010 C
#783
b11000011 C
#784
b11000100 C
#785
b11000101 C
#786
b11000110 C
#787
b11000111 C
#788
b11001000 C
#789
b0 C
b110001010 K
#790
b1 C
#791
b10 C
#792
b11 C
#793
b100 C
#794
b101 C
#795
b110 C
#796
b111 C
#797
b1000 C
#798
b1001 C
#799
b1010 C
#800
b1011 C
#801
b1100 C
#802
b1101 C
#803
b1110 C
#804
b1111 C
#805
b10000 C
#806
b10001 C
#807
b10010 C
#808
b10011 C
#809
b10100 C
#810
b10101 C
#811
b10110 C
#812
b10111 C
#813
b11000 C
#814
b11001 C
#815
b11010 C
#816
b11011 C
#817
b11100 C
#818
b11101 C
#819
b11110 C
#820
b11111 C
#821
b100000 C
#822
b100001 C
#823
b100010 C
#824
b100011 C
#825
b100100 C
#826
b100101 C
#827
b100110 C
#828
b100111 C
#829
b101000 C
#830
b101001 C
#831
b101010 C
#832
b101011 C
#833
b101100 C
#834
b101101 C
#835
b101110 C
#836
b101111 C
#837
b110000 C
#838
b110001 C
#839
b110010 C
#840
b110011 C
#841
b110100 C
#842
b110101 C
#843
b110110 C
#844
b110111 C
#845
b111000 C
#846
b111001 C
#847
b111010 C
#848
b111011 C
#849
b111100 C
#850
b111101 C
#851
b111110 C
#852
b111111 C
#853
b1000000 C
#854
b1000001 C
#855
b1000010 C
#856
b1000011 C
#857
b1000100 C
#858
b1000101 C
#859
b1000110 C
#860
b1000111 C
#861
b1001000 C
#862
b1001001 C
#863
b1001010 C
#864
b1001011 C
#865
b1001100 C
#866
b1001101 C
#867
b1001110 C
#868
b1001111 C
#869
b1010000 C
#870
b1010001 C
#871
b1010010 C
#872
b1010011 C
#873
b1010100 C
#874
b1010101 C
#875
b1010110 C
#876
b1010111 C
#877
b1011000 C
#878
b1011001 C
#879
b1011010 C
#880
b1011011 C
#881
b1011100 C
#882
b1011101 C
#883
b1011110 C
#884
b1011111 C
#885
b1100000 C
#886
b1100001 C
#887
b1100010 C
#888
b1100011 C
#889
b1100100 C
#890
b1100101 C
#891
b1100110 C
#892
b1100111 C
#893
b1101000 C
#894
b1101001 C
#895
b1101010 C
#896
b1101011 C
#897
b1101100 C
#898
b1101101 C
#899
b1101110 C
#900
b1101111 C
#901
b1110000 C
#902
b1110001 C
#903
b1110010 C
#904
b1110011 C
#905
b1110100 C
#906
b1110101 C
#907
b1110110 C
#908
b1110111 C
#909
b1111000 C
#910
b1111001 C
#911
b1111010 C
#912
b1111011 C
#913
b1111100 C
#914
b1111101 C
#915
b1111110 C
#916
b1111111 C
#917
b10000000 C
#918
b10000001 C
#919
b10000010 C
#920
b10000011 C
#921
b10000100 C
#922
b10000101 C
#923
b10000110 C
#924
b10000111 C
#925
b10001000 C
#926
b10001001 C
#927
b10001010 C
#928
b10001011 C
#929
b10001100 C
#930
b10001101 C
#931
b10001110 C
#932
b10001111 C
#933
b10010000 C
#934
b10010001 C
#935
b10010010 C
#936
b10010011 C
#937
b10010100 C
#938
b10010101 C
#939
b10010110 C
#940
b10010111 C
#941
b10011000 C
#942
b10011001 C
#943
b10011010 C
#944
b10011011 C
#945
b10011100 C
#946
b10011101 C
#947
b10011110 C
#948
b10011111 C
#949
b10100000 C
#950
b10100001 C
#951
b10100010 C
#952
b10100011 C
#953
b10100100 C
#954
b10100101 C
#955
b10100110 C
#956
b10100111 C
#957
b10101000 C
#958
b10101001 C
#959
b10101010 C
#960
b10101011 C
#961
b10101100 C
#962
b10101101 C
#963
b10101110 C
#964
b10101111 C
#965
b10110000 C
#966
b10110001 C
#967
b10110010 C
#968
b10110011 C
#969
b10110100 C
#970
b10110101 C
#971
b10110110 C
#972
b10110111 C
#973
b10111000 C
#974
b10111001 C
#975
b10111010 C
#976
b10111011 C
#977
b10111100 C
#978
b10111101 C
#979
b10111110 C
#980
b10111111 C
#981
b11000000 C
#982
b11000001 C
#983
b11000010 C
#984
b11000011 C
#985
b11000100 C
#986
b11000101 C
#987
b11000110 C
#988
b11000111 C
#989
b11001000 C
#990
b0 C
b110001011 K
#991
b1 C
#992
b10 C
#993
b11 C
#994
b100 C
#995
b101 C
#996
b110 C
#997
b111 C
#998
b1000 C
#999
b1001 C
#1000
b1010 C
#1001
b1011 C
#1002
b1100 C
#1003
b1101 C
#1004
b1110 C
#1005
b1111 C
#1006
b10000 C
#1007
b10001 C
#1008
b10010 C
#1009
b10011 C
#1010
b10100 C
#1011
b10101 C
#1012
b10110 C
#1013
b10111 C
#1014
b11000 C
#1015
b11001 C
#1016
b11010 C
#1017
b11011 C
#1018
b11100 C
#1019
b11101 C
#1020
b11110 C
#1021
b11111 C
#1022
b100000 C
#1023
b100001 C
#1024
b100010 C
#1025
b100011 C
#1026
b100100 C
#1027
b100101 C
#1028
b100110 C
#1029
b100111 C
#1030
b101000 C
#1031
b101001 C
#1032
b101010 C
#1033
b101011 C
#1034
b101100 C
#1035
b101101 C
#1036
b101110 C
#1037
b101111 C
#1038
b110000 C
#1039
b110001 C
#1040
b110010 C
#1041
b110011 C
#1042
b110100 C
#1043
b110101 C
#1044
b110110 C
#1045
b110111 C
#1046
b111000 C
#1047
b111001 C
#1048
b111010 C
#1049
b111011 C
#1050
b111100 C
#1051
b111101 C
#1052
b111110 C
#1053
b111111 C
#1054
b1000000 C
#1055
b1000001 C
#1056
b1000010 C
#1057
b1000011 C
#1058
b1000100 C
#1059
b1000101 C
#1060
b1000110 C
#1061
b1000111 C
#1062
b1001000 C
#1063
b1001001 C
#1064
b1001010 C
#1065
b1001011 C
#1066
b1001100 C
#1067
b1001101 C
#1068
b1001110 C
#1069
b1001111 C
#1070
b1010000 C
#1071
b1010001 C
#1072
b1010010 C
#1073
b1010011 C
#1074
b1010100 C
#1075
b1010101 C
#1076
b1010110 C
#1077
b1010111 C
#1078
b1011000 C
#1079
b1011001 C
#1080
b1011010 C
#1081
b1011011 C
#1082
b1011100 C
#1083
b1011101 C
#1084
b1011110 C
#1085
b1011111 C
#1086
b1100000 C
#1087
b1100001 C
#1088
b1100010 C
#1089
b1100011 C
#1090
b1100100 C
#1091
b1100101 C
#1092
b1100110 C
#1093
b1100111 C
#1094
b1101000 C
#1095
b1101001 C
#1096
b1101010 C
#1097
b1101011 C
#1098
b1101100 C
#1099
b1101101 C
#1100
b1101110 C
#1101
b1101111 C
#1102
b1110000 C
#1103
b1110001 C
#1104
b1110010 C
#1105
b1110011 C
#1106
b1110100 C
#1107
b1110101 C
#1108
b1110110 C
#1109
b1110111 C
#1110
b1111000 C
#1111
b1111001 C
#1112
b1111010 C
#1113
b1111011 C
#1114
b1111100 C
#1115
b1111101 C
#1116
b1111110 C
#1117
b1111111 C
#1118
b10000000 C
#1119
b10000001 C
#1120
b10000010 C
#1121
b10000011 C
#1122
b10000100 C
#1123
b10000101 C
#1124
b10000110 C
#1125
b10000111 C
#1126
b10001000 C
#1127
b10001001 C
#1128
b10001010 C
#1129
b10001011 C
#1130
b10001100 C
#1131
b10001101 C
#1132
b10001110 C
#1133
b10001111 C
#1134
b10010000 C
#1135
b10010001 C
#1136
b10010010 C
#1137
b10010011 C
#1138
b10010100 C
#1139
b10010101 C
#1140
b10010110 C
#1141
b10010111 C
#1142
b10011000 C
#1143
b10011001 C
#1144
b10011010 C
#1145
b10011011 C
#1146
b10011100 C
#1147
b10011101 C
#1148
b10011110 C
#1149
b10011111 C
#1150
b10100000 C
#1151
b10100001 C
#1152
b10100010 C
#1153
b10100011 C
#1154
b10100100 C
#1155
b10100101 C
#1156
b10100110 C
#1157
b10100111 C
#1158
b10101000 C
#1159
b10101001 C
#1160
b10101010 C
#1161
b10101011 C
#1162
b10101100 C
#1163
b10101101 C
#1164
b10101110 C
#1165
b10101111 C
#1166
b10110000 C
#1167
b10110001 C
#1168
b10110010 C
#1169
b10110011 C
#1170
b10110100 C
#1171
b10110101 C
#1172
b10110110 C
#1173
b10110111 C
#1174
b10111000 C
#1175
b10111001 C
#1176
b10111010 C
#1177
b10111011 C
#1178
b10111100 C
#1179
b10111101 C
#1180
b10111110 C
#1181
b10111111 C
#1182
b11000000 C
#1183
b11000001 C
#1184
b11000010 C
#1185
b11000011 C
#1186
b11000100 C
#1187
b11000101 C
#1188
b11000110 C
#1189
b11000111 C
#1190
b11001000 C
#1191
b0 C
b110001100 K
#1192
b1 C
#1193
b10 C
#1194
b11 C
#1195
b100 C
#1196
b101 C
#1197
b110 C
#1198
b111 C
#1199
b1000 C
#1200
b1001 C
#1201
b1010 C
#1202
b1011 C
#1203
b1100 C
#1204
b1101 C
#1205
b1110 C
#1206
b1111 C
#1207
b10000 C
#1208
b10001 C
#1209
b10010 C
#1210
b10011 C
#1211
b10100 C
#1212
b10101 C
#1213
b10110 C
#1214
b10111 C
#1215
b11000 C
#1216
b11001 C
#1217
b11010 C
#1218
b11011 C
#1219
b11100 C
#1220
b11101 C
#1221
b11110 C
#1222
b11111 C
#1223
b100000 C
#1224
b100001 C
#1225
b100010 C
#1226
b100011 C
#1227
b100100 C
#1228
b100101 C
#1229
b100110 C
#1230
b100111 C
#1231
b101000 C
#1232
b101001 C
#1233
b101010 C
#1234
b101011 C
#1235
b101100 C
#1236
b101101 C
#1237
b101110 C
#1238
b101111 C
#1239
b110000 C
#1240
b110001 C
#1241
b110010 C
#1242
b110011 C
#1243
b110100 C
#1244
b110101 C
#1245
b110110 C
#1246
b110111 C
#1247
b111000 C
#1248
b111001 C
#1249
b111010 C
#1250
b111011 C
#1251
b111100 C
#1252
b111101 C
#1253
b111110 C
#1254
b111111 C
#1255
b1000000 C
#1256
b1000001 C
#1257
b1000010 C
#1258
b1000011 C
#1259
b1000100 C
#1260
b1000101 C
#1261
b1000110 C
#1262
b1000111 C
#1263
b1001000 C
#1264
b1001001 C
#1265
b1001010 C
#1266
b1001011 C
#1267
b1001100 C
#1268
b1001101 C
#1269
b1001110 C
#1270
b1001111 C
#1271
b1010000 C
#1272
b1010001 C
#1273
b1010010 C
#1274
b1010011 C
#1275
b1010100 C
#1276
b1010101 C
#1277
b1010110 C
#1278
b1010111 C
#1279
b1011000 C
#1280
b1011001 C
#1281
b1011010 C
#1282
b1011011 C
#1283
b1011100 C
#1284
b1011101 C
#1285
b1011110 C
#1286
b1011111 C
#1287
b1100000 C
#1288
b1100001 C
#1289
b1100010 C
#1290
b1100011 C
#1291
b1100100 C
#1292
b1100101 C
#1293
b1100110 C
#1294
b1100111 C
#1295
b1101000 C
#1296
b1101001 C
#1297
b1101010 C
#1298
b1101011 C
#1299
b1101100 C
#1300
b1101101 C
#1301
b1101110 C
#1302
b1101111 C
#1303
b1110000 C
#1304
b1110001 C
#1305
b1110010 C
#1306
b1110011 C
#1307
b1110100 C
#1308
b1110101 C
#1309
b1110110 C
#1310
b1110111 C
#1311
b1111000 C
#1312
b1111001 C
#1313
b1111010 C
#1314
b1111011 C
#1315
b1111100 C
#1316
b1111101 C
#1317
b1111110 C
#1318
b1111111 C
#1319
b10000000 C
#1320
b10000001 C
#1321
b10000010 C
#1322
b10000011 C
#1323
b10000100 C
#1324
b10000101 C
#1325
b10000110 C
#1326
b10000111 C
#1327
b10001000 C
#1328
b10001001 C
#1329
b10001010 C
#1330
b10001011 C
#1331
b10001100 C
#1332
b10001101 C
#1333
b10001110 C
#1334
b10001111 C
#1335
b10010000 C
#1336
b10010001 C
#1337
b10010010 C
#1338
b10010011 C
#1339
b10010100 C
#1340
b10010101 C
#1341
b10010110 C
#1342
b10010111 C
#1343
b10011000 C
#1344
b10011001 C
#1345
b10011010 C
#1346
b10011011 C
#1347
b10011100 C
#1348
b10011101 C
#1349
b10011110 C
#1350
b10011111 C
#1351
b10100000 C
#1352
b10100001 C
#1353
b10100010 C
#1354
b10100011 C
#1355
b10100100 C
#1356
b10100101 C
#1357
b10100110 C
#1358
b10100111 C
#1359
b10101000 C
#1360
b10101001 C
#1361
b10101010 C
#1362
b10101011 C
#1363
b10101100 C
#1364
b10101101 C
#1365
b10101110 C
#1366
b10101111 C
#1367
b10110000 C
#1368
b10110001 C
#1369
b10110010 C
#1370
b10110011 C
#1371
b10110100 C
#1372
b10110101 C
#1373
b10110110 C
#1374
b10110111 C
#1375
b10111000 C
#1376
b10111001 C
#1377
b10111010 C
#1378
b10111011 C
#1379
b10111100 C
#1380
b10111101 C
#1381
b10111110 C
#1382
b10111111 C
#1383
b11000000 C
#1384
b11000001 C
#1385
b11000010 C
#1386
b11000011 C
#1387
b11000100 C
#1388
b11000101 C
#1389
b11000110 C
#1390
b11000111 C
#1391
b11001000 C
#1392
b0 C
b110001101 K
#1393
b1 C
#1394
b10 C
#1395
b11 C
#1396
b100 C
#1397
b101 C
#1398
b110 C
#1399
b111 C
#1400
b1000 C
#1401
b1001 C
#1402
b1010 C
#1403
b1011 C
#1404
b1100 C
#1405
b1101 C
#1406
b1110 C
#1407
b1111 C
#1408
b10000 C
#1409
b10001 C
#1410
b10010 C
#1411
b10011 C
#1412
b10100 C
#1413
b10101 C
#1414
b10110 C
#1415
b10111 C
#1416
b11000 C
#1417
b11001 C
#1418
b11010 C
#1419
b11011 C
#1420
b11100 C
#1421
b11101 C
#1422
b11110 C
#1423
b11111 C
#1424
b100000 C
#1425
b100001 C
#1426
b100010 C
#1427
b100011 C
#1428
b100100 C
#1429
b100101 C
#1430
b100110 C
#1431
b100111 C
#1432
b101000 C
#1433
b101001 C
#1434
b101010 C
#1435
b101011 C
#1436
b101100 C
#1437
b101101 C
#1438
b101110 C
#1439
b101111 C
#1440
b110000 C
#1441
b110001 C
#1442
b110010 C
#1443
b110011 C
#1444
b110100 C
#1445
b110101 C
#1446
b110110 C
#1447
b110111 C
#1448
b111000 C
#1449
b111001 C
#1450
b111010 C
#1451
b111011 C
#1452
b111100 C
#1453
b111101 C
#1454
b111110 C
#1455
b111111 C
#1456
b1000000 C
#1457
b1000001 C
#1458
b1000010 C
#1459
b1000011 C
#1460
b1000100 C
#1461
b1000101 C
