.Xil/Vivado-36724-1012-kerol/hw_ila_data_1/zip_work/waveform.vcd
$date
        2022-Dec-08 16:16:24
$end
$version
        Vivado v2018.3 (64-bit)
$end
$timescale
        1ps
$end
$scope module dut $end
$var reg 1 " clk_200m $end
$var reg 1 # timeout_cnt_flag $end
$var reg 10 $ tx_time [9:0] $end
$var reg 10 . rx_time [9:0] $end
$var reg 10 8 delay [9:0] $end
$var reg 1 B rec_pkt_done1 $end
$var reg 8 C t_hz [7:0] $end
$var reg 10 K us [9:0] $end
$var reg 10 U ms [9:0] $end
$var reg 1 _ _TRIGGER $end
$var reg 1 ` _WINDOW $end
$var reg 1 a _GAP $end
$upscope $end
$enddefinitions $end
#0
$dumpvars
0"
0#
b1111010011 $
b1111010011 .
b10 8
0B
b11000010 C
b1000001100 K
b1110000000 U
0_
1`
0a
$end
#1
b11000011 C
#2
b11000100 C
#3
b11000101 C
#4
b11000110 C
#5
b11000111 C
#6
b11001000 C
#7
b0 C
b1000001101 K
#8
b1 C
#9
b10 C
#10
b11 C
#11
b100 C
#12
b101 C
#13
b110 C
#14
b111 C
#15
b1000 C
#16
b1001 C
#17
b1010 C
#18
b1011 C
#19
b1100 C
#20
b1101 C
#21
b1110 C
#22
b1111 C
#23
b10000 C
#24
b10001 C
#25
b10010 C
#26
b10011 C
#27
b10100 C
#28
b10101 C
#29
b10110 C
#30
b10111 C
#31
b11000 C
#32
b11001 C
#33
b11010 C
#34
b11011 C
#35
b11100 C
#36
b11101 C
#37
b11110 C
#38
b11111 C
#39
b100000 C
#40
b100001 C
#41
b100010 C
#42
b100011 C
#43
b100100 C
#44
b100101 C
#45
b100110 C
#46
b100111 C
#47
b101000 C
#48
b101001 C
#49
b101010 C
#50
b101011 C
#51
b101100 C
#52
b101101 C
#53
b101110 C
#54
b101111 C
#55
b110000 C
#56
b110001 C
#57
b110010 C
#58
b110011 C
#59
b110100 C
#60
b110101 C
#61
b110110 C
#62
b110111 C
#63
b111000 C
#64
b111001 C
#65
b111010 C
#66
b111011 C
#67
b111100 C
#68
b111101 C
#69
b111110 C
#70
b111111 C
#71
b1000000 C
#72
b1000001 C
#73
b1000010 C
#74
b1000011 C
#75
b1000100 C
#76
b1000101 C
#77
b1000110 C
#78
b1000111 C
#79
b1001000 C
#80
b1001001 C
#81
b1001010 C
#82
b1001011 C
#83
b1001100 C
#84
b1001101 C
#85
b1001110 C
#86
b1001111 C
#87
b1010000 C
#88
b1010001 C
#89
b1010010 C
#90
b1010011 C
#91
b1010100 C
#92
b1010101 C
#93
b1010110 C
#94
b1010111 C
#95
b1011000 C
#96
b1011001 C
#97
b1011010 C
#98
b1011011 C
#99
b1011100 C
#100
b1011101 C
#101
b1011110 C
#102
b1011111 C
#103
b1100000 C
#104
b1100001 C
#105
b1100010 C
#106
b1100011 C
#107
b1100100 C
#108
b1100101 C
#109
b1100110 C
#110
b1100111 C
#111
b1101000 C
#112
b1101001 C
#113
b1101010 C
#114
b1101011 C
#115
b1101100 C
#116
b1101101 C
#117
b1101110 C
#118
b1101111 C
#119
b1110000 C
#120
b1110001 C
#121
b1110010 C
#122
b1110011 C
#123
b1110100 C
#124
b1110101 C
#125
b1110110 C
#126
b1110111 C
#127
b1111000 C
#128
b1111001 C
#129
b1111010 C
#130
b1111011 C
#131
b1111100 C
#132
b1111101 C
#133
b1111110 C
#134
b1111111 C
#135
b10000000 C
#136
b10000001 C
#137
b10000010 C
#138
b10000011 C
#139
b10000100 C
#140
b10000101 C
#141
b10000110 C
#142
b10000111 C
#143
b10001000 C
#144
b10001001 C
#145
b10001010 C
#146
b10001011 C
#147
b10001100 C
#148
b10001101 C
#149
b10001110 C
#150
b10001111 C
#151
b10010000 C
#152
b10010001 C
#153
b10010010 C
#154
b10010011 C
#155
b10010100 C
#156
b10010101 C
#157
b10010110 C
#158
b10010111 C
#159
b10011000 C
#160
b10011001 C
#161
b10011010 C
#162
b10011011 C
#163
b10011100 C
#164
b10011101 C
#165
b10011110 C
#166
b10011111 C
#167
b10100000 C
#168
b10100001 C
#169
b10100010 C
#170
b10100011 C
#171
b10100100 C
#172
b10100101 C
#173
b10100110 C
#174
b10100111 C
#175
b10101000 C
#176
b10101001 C
#177
b10101010 C
#178
b10101011 C
#179
b10101100 C
#180
b10101101 C
#181
b10101110 C
#182
b10101111 C
#183
b10110000 C
#184
b10110001 C
#185
b10110010 C
#186
b10110011 C
#187
b10110100 C
#188
b10110101 C
#189
b10110110 C
#190
b10110111 C
#191
b10111000 C
#192
b10111001 C
#193
b10111010 C
#194
b10111011 C
#195
b10111100 C
#196
b10111101 C
#197
b10111110 C
#198
b10111111 C
#199
b11000000 C
#200
b11000001 C
#201
b11000010 C
#202
b11000011 C
#203
b11000100 C
#204
b11000101 C
#205
b11000110 C
#206
b11000111 C
#207
b11001000 C
#208
b0 C
b1000001110 K
#209
b1 C
#210
b10 C
#211
b11 C
#212
b100 C
#213
b101 C
#214
b110 C
#215
b111 C
#216
b1000 C
#217
b1001 C
#218
b1010 C
#219
b1011 C
#220
b1100 C
#221
b1101 C
#222
b1110 C
#223
b1111 C
#224
b10000 C
#225
b10001 C
#226
b10010 C
#227
b10011 C
#228
b10100 C
#229
b10101 C
#230
b10110 C
#231
b10111 C
#232
b11000 C
#233
b11001 C
#234
b11010 C
#235
b11011 C
#236
b11100 C
#237
b11101 C
#238
b11110 C
#239
b11111 C
#240
b100000 C
#241
b100001 C
#242
b100010 C
#243
b100011 C
#244
b100100 C
#245
b100101 C
#246
b100110 C
#247
b100111 C
#248
b101000 C
#249
b101001 C
#250
b101010 C
#251
b101011 C
#252
b101100 C
#253
b101101 C
#254
b101110 C
#255
b101111 C
#256
b110000 C
#257
b110001 C
#258
b110010 C
#259
b110011 C
#260
b110100 C
#261
b110101 C
#262
b110110 C
#263
b110111 C
#264
b111000 C
#265
b111001 C
#266
b111010 C
#267
b111011 C
#268
b111100 C
#269
b111101 C
#270
b111110 C
#271
b111111 C
#272
b1000000 C
#273
b1000001 C
#274
b1000010 C
#275
b1000011 C
#276
b1000100 C
#277
b1000101 C
#278
b1000110 C
#279
b1000111 C
#280
b1001000 C
#281
b1001001 C
#282
b1001010 C
#283
b1001011 C
#284
b1001100 C
#285
b1001101 C
#286
b1001110 C
#287
b1001111 C
#288
b1010000 C
#289
b1010001 C
#290
b1010010 C
#291
b1010011 C
#292
b1010100 C
#293
b1010101 C
#294
b1010110 C
#295
b1010111 C
#296
b1011000 C
#297
b1011001 C
#298
b1011010 C
#299
b1011011 C
#300
b1011100 C
#301
b1011101 C
#302
b1011110 C
#303
b1011111 C
#304
b1100000 C
#305
b1100001 C
#306
b1100010 C
#307
b1100011 C
#308
b1100100 C
#309
b1100101 C
#310
b1100110 C
#311
b1100111 C
#312
b1101000 C
#313
b1101001 C
#314
b1101010 C
#315
b1101011 C
#316
b1101100 C
#317
b1101101 C
#318
b1101110 C
#319
b1101111 C
#320
b1110000 C
#321
b1110001 C
#322
b1110010 C
#323
b1110011 C
#324
b1110100 C
#325
b1110101 C
#326
b1110110 C
#327
b1110111 C
#328
b1111000 C
#329
b1111001 C
#330
b1111010 C
#331
b1111011 C
#332
b1111100 C
#333
b1111101 C
#334
b1111110 C
#335
b1111111 C
#336
b10000000 C
#337
b10000001 C
#338
b10000010 C
#339
b10000011 C
#340
b10000100 C
#341
b10000101 C
#342
b10000110 C
#343
b10000111 C
#344
b10001000 C
#345
b10001001 C
#346
b10001010 C
#347
b10001011 C
#348
b10001100 C
#349
b10001101 C
#350
b10001110 C
#351
b10001111 C
#352
b10010000 C
#353
b10010001 C
#354
b10010010 C
#355
b10010011 C
#356
b10010100 C
#357
b10010101 C
#358
b10010110 C
#359
b10010111 C
#360
b10011000 C
#361
b10011001 C
#362
b10011010 C
#363
b10011011 C
#364
b10011100 C
#365
b10011101 C
#366
b10011110 C
#367
b10011111 C
#368
b10100000 C
#369
b10100001 C
#370
b10100010 C
#371
b10100011 C
#372
b10100100 C
#373
b10100101 C
#374
b10100110 C
#375
b10100111 C
#376
b10101000 C
#377
b10101001 C
#378
b10101010 C
#379
b10101011 C
#380
b10101100 C
#381
b10101101 C
#382
b10101110 C
#383
b10101111 C
#384
b10110000 C
#385
b10110001 C
#386
b10110010 C
#387
b10110011 C
#388
b10110100 C
#389
b10110101 C
#390
b10110110 C
#391
b10110111 C
#392
b10111000 C
#393
b10111001 C
#394
b10111010 C
#395
b10111011 C
#396
b10111100 C
#397
b10111101 C
#398
b10111110 C
#399
b10111111 C
#400
b11000000 C
#401
b11000001 C
#402
b11000010 C
#403
b11000011 C
#404
b11000100 C
#405
b11000101 C
#406
b11000110 C
#407
b11000111 C
#408
b11001000 C
#409
b0 C
b1000001111 K
#410
b1 C
#411
b10 C
#412
b11 C
#413
b100 C
#414
b101 C
#415
b110 C
#416
b111 C
#417
b1000 C
#418
b1001 C
#419
b1010 C
#420
b1011 C
#421
b1100 C
#422
b1101 C
#423
b1110 C
#424
b1111 C
#425
b10000 C
#426
b10001 C
#427
b10010 C
#428
b10011 C
#429
b10100 C
#430
b10101 C
#431
b10110 C
#432
b10111 C
#433
b11000 C
#434
b11001 C
#435
b11010 C
#436
b11011 C
#437
b11100 C
#438
b11101 C
#439
b11110 C
#440
b11111 C
#441
b100000 C
#442
b100001 C
#443
b100010 C
#444
b100011 C
#445
b100100 C
#446
b100101 C
#447
b100110 C
#448
b100111 C
#449
b101000 C
#450
b101001 C
#451
b101010 C
#452
b101011 C
#453
b101100 C
#454
b101101 C
#455
b101110 C
#456
b101111 C
#457
b110000 C
#458
b110001 C
#459
b110010 C
#460
b110011 C
#461
b110100 C
#462
b110101 C
#463
b110110 C
#464
b110111 C
#465
b111000 C
#466
b111001 C
#467
b111010 C
#468
b111011 C
#469
b111100 C
#470
b111101 C
#471
b111110 C
#472
b111111 C
#473
b1000000 C
#474
b1000001 C
#475
b1000010 C
#476
b1000011 C
#477
b1000100 C
#478
b1000101 C
#479
b1000110 C
#480
b1000111 C
#481
b1001000 C
#482
b1001001 C
#483
b1001010 C
#484
b1001011 C
#485
b1001100 C
#486
b1001101 C
#487
b1001110 C
#488
b1001111 C
#489
b1010000 C
#490
b1010001 C
#491
b1010010 C
#492
b1010011 C
#493
b1010100 C
#494
b1010101 C
#495
b1010110 C
#496
b1010111 C
#497
b1011000 C
#498
b1011001 C
#499
b1011010 C
#500
b1011011 C
#501
b1011100 C
#502
b1011101 C
#503
b1011110 C
#504
b1011111 C
#505
b1100000 C
#506
b1100001 C
#507
b1100010 C
#508
b1100011 C
#509
b1100100 C
#510
b1100101 C
#511
b1100110 C
#512
b1100111 C
#513
b1101000 C
#514
b1101001 C
#515
b1101010 C
#516
b1101011 C
#517
b1101100 C
#518
b1101101 C
#519
b1101110 C
#520
b1101111 C
#521
b1110000 C
#522
b1110001 C
#523
b1110010 C
#524
b1110011 C
#525
b1110100 C
#526
b1110101 C
#527
b1110110 C
#528
b1110111 C
#529
b1111000 C
#530
b1111001 C
#531
b1111010 C
#532
b1111011 C
#533
b1111100 C
#534
b1111101 C
#535
b1111110 C
#536
b1111111 C
#537
b10000000 C
#538
b10000001 C
#539
b10000010 C
#540
b10000011 C
#541
b10000100 C
#542
b10000101 C
#543
b10000110 C
#544
b10000111 C
#545
b10001000 C
#546
b10001001 C
#547
b10001010 C
#548
b10001011 C
#549
b10001100 C
#550
b10001101 C
#551
b10001110 C
#552
b10001111 C
#553
b10010000 C
#554
b10010001 C
#555
b10010010 C
#556
b10010011 C
#557
b10010100 C
#558
b10010101 C
#559
b10010110 C
#560
b10010111 C
#561
b10011000 C
#562
b10011001 C
#563
b10011010 C
#564
b10011011 C
#565
b10011100 C
#566
b10011101 C
#567
b10011110 C
#568
b10011111 C
#569
b10100000 C
#570
b10100001 C
#571
b10100010 C
#572
b10100011 C
#573
b10100100 C
#574
b10100101 C
#575
b10100110 C
#576
b10100111 C
#577
b10101000 C
#578
b10101001 C
#579
b10101010 C
#580
b10101011 C
#581
b10101100 C
#582
b10101101 C
#583
b10101110 C
#584
b10101111 C
#585
b10110000 C
#586
b10110001 C
#587
b10110010 C
#588
b10110011 C
#589
b10110100 C
#590
b10110101 C
#591
b10110110 C
#592
b10110111 C
#593
b10111000 C
#594
b10111001 C
#595
b10111010 C
#596
b10111011 C
#597
b10111100 C
#598
b10111101 C
#599
b10111110 C
#600
b10111111 C
#601
b11000000 C
#602
b11000001 C
#603
b11000010 C
#604
b11000011 C
#605
b11000100 C
#606
b11000101 C
#607
b11000110 C
#608
b11000111 C
#609
b11001000 C
#610
b0 C
b1000010000 K
#611
b1 C
#612
b10 C
#613
b11 C
#614
b100 C
#615
b101 C
#616
b110 C
#617
b111 C
#618
b1000 C
#619
b1001 C
#620
b1010 C
#621
b1011 C
#622
b1100 C
#623
b1101 C
#624
b1110 C
#625
b1111 C
#626
b10000 C
#627
b10001 C
#628
b10010 C
#629
b10011 C
#630
b10100 C
#631
b10101 C
#632
b10110 C
#633
b10111 C
#634
b11000 C
#635
b11001 C
#636
b11010 C
#637
b11011 C
#638
b11100 C
#639
b11101 C
#640
b11110 C
#641
b11111 C
#642
b100000 C
#643
b100001 C
#644
b100010 C
#645
b100011 C
#646
b100100 C
#647
b100101 C
#648
b100110 C
#649
b100111 C
#650
b101000 C
#651
b101001 C
#652
b101010 C
#653
b101011 C
#654
b101100 C
#655
b101101 C
#656
b101110 C
#657
b101111 C
#658
b110000 C
#659
b110001 C
#660
b110010 C
#661
b110011 C
#662
b110100 C
#663
b110101 C
#664
b110110 C
#665
b110111 C
#666
b111000 C
#667
b111001 C
#668
b111010 C
#669
b111011 C
#670
b111100 C
#671
b111101 C
#672
b111110 C
#673
b111111 C
#674
b1000000 C
#675
b1000001 C
#676
b1000010 C
#677
b1000011 C
#678
b1000100 C
#679
b1000101 C
#680
b1000110 C
#681
b1000111 C
#682
b1001000 C
#683
b1001001 C
#684
b1001010 C
#685
b1001011 C
#686
b1001100 C
#687
b1001101 C
#688
b1001110 C
#689
b1001111 C
#690
b1010000 C
#691
b1010001 C
#692
b1010010 C
#693
b1010011 C
#694
b1010100 C
#695
b1010101 C
#696
b1010110 C
#697
b1010111 C
#698
b1011000 C
#699
b1011001 C
#700
b1011010 C
#701
b1011011 C
#702
b1011100 C
#703
b1011101 C
#704
b1011110 C
#705
b1011111 C
#706
b1100000 C
#707
b1100001 C
#708
b1100010 C
#709
b1100011 C
#710
b1100100 C
#711
b1100101 C
#712
b1100110 C
#713
b1100111 C
#714
b1101000 C
#715
b1101001 C
#716
b1101010 C
#717
b1101011 C
#718
b1101100 C
#719
b1101101 C
#720
b1101110 C
#721
b1101111 C
#722
b1110000 C
#723
b1110001 C
#724
b1110010 C
#725
b1110011 C
#726
b1110100 C
#727
b1110101 C
#728
b1110110 C
#729
b1110111 C
#730
b1111000 C
#731
b1111001 C
#732
b1111010 C
#733
b1111011 C
#734
b1111100 C
#735
b1111101 C
#736
b1111110 C
#737
b1111111 C
#738
b10000000 C
#739
b10000001 C
#740
b10000010 C
#741
b10000011 C
#742
b10000100 C
#743
b10000101 C
#744
b10000110 C
#745
b10000111 C
#746
b10001000 C
#747
b10001001 C
#748
b10001010 C
#749
b10001011 C
#750
b10001100 C
#751
b10001101 C
#752
b10001110 C
#753
b10001111 C
#754
b10010000 C
#755
b10010001 C
#756
b10010010 C
#757
b10010011 C
#758
b10010100 C
#759
b10010101 C
#760
b10010110 C
#761
b10010111 C
#762
b10011000 C
#763
b10011001 C
#764
b10011010 C
#765
b10011011 C
#766
b10011100 C
#767
b10011101 C
#768
b10011110 C
#769
b10011111 C
#770
b10100000 C
#771
b10100001 C
#772
b10100010 C
#773
b10100011 C
#774
b10100100 C
#775
b10100101 C
#776
b10100110 C
#777
b10100111 C
#778
b10101000 C
#779
b10101001 C
#780
b10101010 C
#781
b10101011 C
#782
b10101100 C
#783
b10101101 C
#784
b10101110 C
#785
b10101111 C
#786
b10110000 C
#787
b10110001 C
#788
b10110010 C
#789
b10110011 C
#790
b10110100 C
#791
b10110101 C
#792
b10110110 C
#793
b10110111 C
#794
b10111000 C
#795
b10111001 C
#796
b10111010 C
#797
b10111011 C
#798
b10111100 C
#799
b10111101 C
#800
b10111110 C
#801
b10111111 C
#802
b11000000 C
#803
b11000001 C
#804
b11000010 C
#805
b11000011 C
#806
b11000100 C
#807
b11000101 C
#808
b11000110 C
#809
b11000111 C
#810
b11001000 C
#811
b0 C
b1000010001 K
#812
b1 C
#813
b10 C
#814
b11 C
#815
b100 C
#816
b101 C
#817
b110 C
#818
b111 C
#819
b1000 C
#820
b1001 C
#821
b1010 C
#822
b1011 C
#823
b1100 C
#824
b1101 C
#825
b1110 C
#826
b1111 C
#827
b10000 C
#828
b10001 C
#829
b10010 C
#830
b10011 C
#831
b10100 C
#832
b10101 C
#833
b10110 C
#834
b10111 C
#835
b11000 C
#836
b11001 C
#837
b11010 C
#838
b11011 C
#839
b11100 C
#840
b11101 C
#841
b11110 C
#842
b11111 C
#843
b100000 C
#844
b100001 C
#845
b100010 C
#846
b100011 C
#847
b100100 C
#848
b100101 C
#849
b100110 C
#850
b100111 C
#851
b101000 C
#852
b101001 C
#853
b101010 C
#854
b101011 C
#855
b101100 C
#856
b101101 C
#857
b101110 C
#858
b101111 C
#859
b110000 C
#860
b110001 C
#861
b110010 C
#862
b110011 C
#863
b110100 C
#864
b110101 C
#865
b110110 C
#866
b110111 C
#867
b111000 C
#868
b111001 C
#869
b111010 C
#870
b111011 C
#871
b111100 C
#872
b111101 C
#873
b111110 C
#874
b111111 C
#875
b1000000 C
#876
b1000001 C
#877
b1000010 C
#878
b1000011 C
#879
b1000100 C
#880
b1000101 C
#881
b1000110 C
#882
b1000111 C
#883
b1001000 C
#884
b1001001 C
#885
b1001010 C
#886
b1001011 C
#887
b1001100 C
#888
b1001101 C
#889
b1001110 C
#890
b1001111 C
#891
b1010000 C
#892
b1010001 C
#893
b1010010 C
#894
b1010011 C
#895
b1010100 C
#896
b1010101 C
#897
b1010110 C
#898
b1010111 C
#899
b1011000 C
#900
b1011001 C
#901
b1011010 C
#902
b1011011 C
#903
b1011100 C
#904
b1011101 C
#905
b1011110 C
#906
b1011111 C
#907
b1100000 C
#908
b1100001 C
#909
b1100010 C
#910
b1100011 C
#911
b1100100 C
#912
b1100101 C
#913
b1100110 C
#914
b1100111 C
#915
b1101000 C
#916
b1101001 C
#917
b1101010 C
#918
b1101011 C
#919
b1101100 C
#920
b1101101 C
#921
b1101110 C
#922
b1101111 C
#923
b1110000 C
#924
b1110001 C
#925
b1110010 C
#926
b1110011 C
#927
b1110100 C
#928
b1110101 C
#929
b1110110 C
#930
b1110111 C
#931
b1111000 C
#932
b1111001 C
#933
b1111010 C
#934
b1111011 C
#935
b1111100 C
#936
b1111101 C
#937
b1111110 C
#938
b1111111 C
#939
b10000000 C
#940
b10000001 C
#941
b10000010 C
#942
b10000011 C
#943
b10000100 C
#944
b10000101 C
#945
b10000110 C
#946
b10000111 C
#947
b10001000 C
#948
b10001001 C
#949
b10001010 C
#950
b10001011 C
#951
b10001100 C
#952
b10001101 C
#953
b10001110 C
#954
b10001111 C
#955
b10010000 C
#956
b10010001 C
#957
b10010010 C
#958
b10010011 C
#959
b10010100 C
#960
b10010101 C
#961
b10010110 C
#962
b10010111 C
#963
b10011000 C
#964
b10011001 C
#965
b10011010 C
#966
b10011011 C
#967
b10011100 C
#968
b10011101 C
#969
b10011110 C
#970
b10011111 C
#971
b10100000 C
#972
b10100001 C
#973
b10100010 C
#974
b10100011 C
#975
b10100100 C
#976
b10100101 C
#977
b10100110 C
#978
b10100111 C
#979
b10101000 C
#980
b10101001 C
#981
b10101010 C
#982
b10101011 C
#983
b10101100 C
#984
b10101101 C
#985
b10101110 C
#986
b10101111 C
#987
b10110000 C
#988
b10110001 C
#989
b10110010 C
#990
b10110011 C
#991
b10110100 C
#992
b10110101 C
#993
b10110110 C
#994
b10110111 C
#995
b10111000 C
#996
b10111001 C
#997
b10111010 C
#998
b10111011 C
#999
b10111100 C
#1000
b10111101 C
#1001
b10111110 C
#1002
b10111111 C
#1003
b11000000 C
#1004
b11000001 C
#1005
b11000010 C
#1006
b11000011 C
#1007
b11000100 C
#1008
b11000101 C
#1009
b11000110 C
#1010
b11000111 C
#1011
b11001000 C
#1012
b0 C
b1000010010 K
#1013
b1 C
#1014
b10 C
#1015
b11 C
#1016
b100 C
#1017
b101 C
#1018
b110 C
#1019
b111 C
#1020
b1000 C
#1021
b1001 C
#1022
b1010 C
#1023
b1011 C
#1024
b1100 C
#1025
b1101 C
#1026
b1110 C
#1027
b1111 C
#1028
b10000 C
#1029
b10001 C
#1030
b10010 C
#1031
b10011 C
#1032
b10100 C
#1033
b10101 C
#1034
b10110 C
#1035
b10111 C
#1036
b11000 C
#1037
b11001 C
#1038
b11010 C
#1039
b11011 C
#1040
b11100 C
#1041
b11101 C
#1042
b11110 C
#1043
b11111 C
#1044
b100000 C
#1045
b100001 C
#1046
b100010 C
#1047
b100011 C
#1048
b100100 C
#1049
b100101 C
#1050
b100110 C
#1051
b100111 C
#1052
b101000 C
#1053
b101001 C
#1054
b101010 C
#1055
b101011 C
#1056
b101100 C
#1057
b101101 C
#1058
b101110 C
#1059
b101111 C
#1060
b110000 C
#1061
b110001 C
#1062
b110010 C
#1063
b110011 C
#1064
b110100 C
#1065
b110101 C
#1066
b110110 C
#1067
b110111 C
#1068
b111000 C
#1069
b111001 C
#1070
b111010 C
#1071
b111011 C
#1072
b111100 C
#1073
b111101 C
#1074
b111110 C
#1075
b111111 C
#1076
b1000000 C
#1077
b1000001 C
#1078
b1000010 C
#1079
b1000011 C
#1080
b1000100 C
#1081
b1000101 C
#1082
b1000110 C
#1083
b1000111 C
#1084
b1001000 C
#1085
b1001001 C
#1086
b1001010 C
#1087
b1001011 C
#1088
b1001100 C
#1089
b1001101 C
#1090
b1001110 C
#1091
b1001111 C
#1092
b1010000 C
#1093
b1010001 C
#1094
b1010010 C
#1095
b1010011 C
#1096
b1010100 C
#1097
b1010101 C
#1098
b1010110 C
#1099
b1010111 C
#1100
b1011000 C
#1101
b1011001 C
#1102
b1011010 C
#1103
b1011011 C
#1104
b1011100 C
#1105
b1011101 C
#1106
b1011110 C
#1107
b1011111 C
#1108
b1100000 C
#1109
b1100001 C
#1110
b1100010 C
#1111
b1100011 C
#1112
b1100100 C
#1113
b1100101 C
#1114
b1100110 C
#1115
b1100111 C
#1116
b1101000 C
#1117
b1101001 C
#1118
b1101010 C
#1119
b1101011 C
#1120
b1101100 C
#1121
b1101101 C
#1122
b1101110 C
#1123
b1101111 C
#1124
b1110000 C
#1125
b1110001 C
#1126
b1110010 C
#1127
b1110011 C
#1128
b1110100 C
#1129
b1110101 C
#1130
b1110110 C
#1131
b1110111 C
#1132
b1111000 C
#1133
b1111001 C
#1134
b1111010 C
#1135
b1111011 C
#1136
b1111100 C
#1137
b1111101 C
#1138
b1111110 C
#1139
b1111111 C
#1140
b10000000 C
#1141
b10000001 C
#1142
b10000010 C
#1143
b10000011 C
#1144
b10000100 C
#1145
b10000101 C
#1146
b10000110 C
#1147
b10000111 C
#1148
b10001000 C
#1149
b10001001 C
#1150
b10001010 C
#1151
b10001011 C
#1152
b10001100 C
#1153
b10001101 C
#1154
b10001110 C
#1155
b10001111 C
#1156
b10010000 C
#1157
b10010001 C
#1158
b10010010 C
#1159
b10010011 C
#1160
b10010100 C
#1161
b10010101 C
#1162
b10010110 C
#1163
b10010111 C
#1164
b10011000 C
#1165
b10011001 C
#1166
b10011010 C
#1167
b10011011 C
#1168
b10011100 C
#1169
b10011101 C
#1170
b10011110 C
#1171
b10011111 C
#1172
b10100000 C
#1173
b10100001 C
#1174
b10100010 C
#1175
b10100011 C
#1176
b10100100 C
#1177
b10100101 C
#1178
b10100110 C
#1179
b10100111 C
#1180
b10101000 C
#1181
b10101001 C
#1182
b10101010 C
#1183
b10101011 C
#1184
b10101100 C
#1185
b10101101 C
#1186
b10101110 C
#1187
b10101111 C
#1188
b10110000 C
#1189
b10110001 C
#1190
b10110010 C
#1191
b10110011 C
#1192
b10110100 C
#1193
b10110101 C
#1194
b10110110 C
#1195
b10110111 C
#1196
b10111000 C
#1197
b10111001 C
#1198
b10111010 C
#1199
b10111011 C
#1200
b10111100 C
#1201
b10111101 C
#1202
b10111110 C
#1203
b10111111 C
#1204
b11000000 C
#1205
b11000001 C
#1206
b11000010 C
#1207
b11000011 C
#1208
b11000100 C
#1209
b11000101 C
#1210
b11000110 C
#1211
b11000111 C
#1212
b11001000 C
#1213
b0 C
b1000010011 K
#1214
b1 C
#1215
b10 C
#1216
b11 C
#1217
b100 C
#1218
b101 C
#1219
b110 C
#1220
b111 C
#1221
b1000 C
#1222
b1001 C
#1223
b1010 C
#1224
b1011 C
#1225
b1100 C
#1226
b1101 C
#1227
b1110 C
#1228
b1111 C
#1229
b10000 C
#1230
b10001 C
#1231
b10010 C
#1232
b10011 C
#1233
b10100 C
#1234
b10101 C
#1235
b10110 C
#1236
b10111 C
#1237
b11000 C
#1238
b11001 C
#1239
b11010 C
#1240
b11011 C
#1241
b11100 C
#1242
b11101 C
#1243
b11110 C
#1244
b11111 C
#1245
b100000 C
#1246
b100001 C
#1247
b100010 C
#1248
b100011 C
#1249
b100100 C
#1250
b100101 C
#1251
b100110 C
#1252
b100111 C
#1253
b101000 C
#1254
b101001 C
#1255
b101010 C
#1256
b101011 C
#1257
b101100 C
#1258
b101101 C
#1259
b101110 C
#1260
b101111 C
#1261
b110000 C
#1262
b110001 C
#1263
b110010 C
#1264
b110011 C
#1265
b110100 C
#1266
b110101 C
#1267
b110110 C
#1268
b110111 C
#1269
b111000 C
#1270
b111001 C
#1271
b111010 C
#1272
b111011 C
#1273
b111100 C
#1274
b111101 C
#1275
b111110 C
#1276
b111111 C
#1277
b1000000 C
#1278
b1000001 C
#1279
b1000010 C
#1280
b1000011 C
#1281
b1000100 C
#1282
b1000101 C
#1283
b1000110 C
#1284
b1000111 C
#1285
b1001000 C
#1286
b1001001 C
#1287
b1001010 C
#1288
b1001011 C
#1289
b1001100 C
#1290
b1001101 C
#1291
b1001110 C
#1292
b1001111 C
#1293
b1010000 C
#1294
b1010001 C
#1295
b1010010 C
#1296
b1010011 C
#1297
b1010100 C
#1298
b1010101 C
#1299
b1010110 C
#1300
b1010111 C
#1301
b1011000 C
#1302
b1011001 C
#1303
b1011010 C
#1304
b1011011 C
#1305
b1011100 C
#1306
b1011101 C
#1307
b1011110 C
#1308
b1011111 C
#1309
b1100000 C
#1310
b1100001 C
#1311
b1100010 C
#1312
b1100011 C
#1313
b1100100 C
#1314
b1100101 C
#1315
b1100110 C
#1316
b1100111 C
#1317
b1101000 C
#1318
b1101001 C
#1319
b1101010 C
#1320
b1101011 C
#1321
b1101100 C
#1322
b1101101 C
#1323
b1101110 C
#1324
b1101111 C
#1325
b1110000 C
#1326
b1110001 C
#1327
b1110010 C
#1328
b1110011 C
#1329
b1110100 C
#1330
b1110101 C
#1331
b1110110 C
#1332
b1110111 C
#1333
b1111000 C
#1334
b1111001 C
#1335
b1111010 C
#1336
b1111011 C
#1337
b1111100 C
#1338
b1111101 C
#1339
b1111110 C
#1340
b1111111 C
#1341
b10000000 C
#1342
b10000001 C
#1343
b10000010 C
#1344
b10000011 C
#1345
b10000100 C
#1346
b10000101 C
#1347
b10000110 C
#1348
b10000111 C
#1349
b10001000 C
#1350
b10001001 C
#1351
b10001010 C
#1352
b10001011 C
#1353
b10001100 C
#1354
b10001101 C
#1355
b10001110 C
#1356
b10001111 C
#1357
b10010000 C
#1358
b10010001 C
#1359
b10010010 C
#1360
b10010011 C
#1361
b10010100 C
#1362
b10010101 C
#1363
b10010110 C
#1364
b10010111 C
#1365
b10011000 C
#1366
b10011001 C
#1367
b10011010 C
#1368
b10011011 C
#1369
b10011100 C
#1370
b10011101 C
#1371
b10011110 C
#1372
b10011111 C
#1373
b10100000 C
#1374
b10100001 C
#1375
b10100010 C
#1376
b10100011 C
#1377
b10100100 C
#1378
b10100101 C
#1379
b10100110 C
#1380
b10100111 C
#1381
b10101000 C
#1382
b10101001 C
#1383
b10101010 C
#1384
b10101011 C
#1385
b10101100 C
#1386
b10101101 C
#1387
b10101110 C
#1388
b10101111 C
#1389
b10110000 C
#1390
b10110001 C
#1391
b10110010 C
#1392
b10110011 C
#1393
b10110100 C
#1394
b10110101 C
#1395
b10110110 C
#1396
b10110111 C
#1397
b10111000 C
#1398
b10111001 C
#1399
b10111010 C
#1400
b10111011 C
#1401
b10111100 C
#1402
b10111101 C
#1403
b10111110 C
#1404
b10111111 C
#1405
b11000000 C
#1406
b11000001 C
#1407
b11000010 C
#1408
b11000011 C
#1409
b11000100 C
#1410
b11000101 C
#1411
b11000110 C
#1412
b11000111 C
#1413
b11001000 C
#1414
b0 C
b1000010100 K
#1415
b1 C
#1416
b10 C
#1417
b11 C
#1418
b100 C
#1419
b101 C
#1420
b110 C
#1421
b111 C
#1422
b1000 C
#1423
b1001 C
#1424
b1010 C
#1425
b1011 C
#1426
b1100 C
#1427
b1101 C
#1428
b1110 C
#1429
b1111 C
#1430
b10000 C
#1431
b10001 C
#1432
b10010 C
#1433
b10011 C
#1434
b10100 C
#1435
b10101 C
#1436
b10110 C
#1437
b10111 C
#1438
b11000 C
#1439
b11001 C
#1440
b11010 C
#1441
b11011 C
#1442
b11100 C
#1443
b11101 C
#1444
b11110 C
#1445
b11111 C
#1446
b100000 C
#1447
b100001 C
#1448
b100010 C
#1449
b100011 C
#1450
b100100 C
#1451
b100101 C
#1452
b100110 C
#1453
b100111 C
#1454
b101000 C
#1455
b101001 C
#1456
b101010 C
#1457
b101011 C
#1458
b101100 C
#1459
b101101 C
#1460
b101110 C
